R for Data Science Notes • cqsR
…
mutate+case_when

group_by: takes an existing tbl and converts it into a grouped tbl

by_cyl <- mtcars %>% group_by(cyl)

# grouping doesn't change how the data looks (apart from listing
# how it's grouped):
by_cyl

## # A tibble: 32 x 11
## # Groups:   cyl [3]
##      mpg   cyl  disp    hp  drat    wt  qsec    vs    am  gear  carb
##  * <dbl> <dbl> <dbl> <dbl> <dbl> <dbl> <dbl> <dbl> <dbl> <dbl> <dbl>
##  1  21       6  160    110  3.9   2.62  16.5     0     1     4     4
##  2  21       6  160    110  3.9   2.88  17.0     0     1     4     4
##  3  22.8     4  108     93  3.85  2.32  18.6     1     1     4     1
##  4  21.4     6  258    110  3.08  3.22  19.4     1     0     3     1
##  5  18.7     8  360    175  3.15  3.44  17.0     0     0     3     2
##  6  18.1     6  225    105  2.76  3.46  20.2     1     0     3     1
##  7  14.3     8  360    245  3.21  3.57  15.8     0     0     3     4
##  8  24.4     4  147.    62  3.69  3.19  20       1     0     4     2
##  9  22.8     4  141.    95  3.92  3.15  22.9     1     0     4     2
## 10  19.2     6  168.   123  3.92  3.44  18.3     1     0     4     4
## # ... with 22 more rows
…
## # A tibble: 6 x 4
##   time            X      Y       Z
##   <date>      <dbl>  <dbl>   <dbl>
## 1 2009-01-01  2.91  -0.297 -1.04  
## 2 2009-01-02  0.573 -1.88  -0.980 
## 3 2009-01-03  0.484 -1.42   5.67  
## 4 2009-01-04  0.427  2.70   5.29  
## 5 2009-01-05  2.69   0.692  5.82  
## 6 2009-01-06 -1.51   1.06  -0.0359

#use everything except "time" as values. "stock" and "price" as new variable names for key and value
gather(stocks, "stock", "price", -time)

## # A tibble: 30 x 3
##    time       stock  price
##    <date>     <chr>  <dbl>
##  1 2009-01-01 X      2.91 
##  2 2009-01-02 X      0.573
##  3 2009-01-03 X      0.484
##  4 2009-01-04 X      0.427
##  5 2009-01-05 X      2.69 
##  6 2009-01-06 X     -1.51 
##  7 2009-01-07 X     -1.36 
##  8 2009-01-08 X     -1.30 
##  9 2009-01-09 X      0.977
## 10 2009-01-10 X     -1.26 
## # ... with 20 more rows

#use X, Y, Z as values, so don't need -time. "stock" and "price" as new variable names for key and value
stocks %>% gather("X", "Y","Z",key="stock",value="price")

## # A tibble: 30 x 3
##    time       stock  price
##    <date>     <chr>  <dbl>
##  1 2009-01-01 X      2.91 
##  2 2009-01-02 X      0.573
##  3 2009-01-03 X      0.484
##  4 2009-01-04 X      0.427
##  5 2009-01-05 X      2.69 
##  6 2009-01-06 X     -1.51 
##  7 2009-01-07 X     -1.36 
##  8 2009-01-08 X     -1.30 
##  9 2009-01-09 X      0.977
## 10 2009-01-10 X     -1.26 
## # ... with 20 more rows
…
